{
    "$schema": "https://localhost/terminvereinbarung/api/2/",
    "meta": {
        "$schema": "https://schema.berlin.de/queuemanagement/metaresult.json",
        "error": false,
        "generated": "2017-07-03T18:12:38+02:00",
        "server": "Zmsapi-ENV"
    },
    "data": {
        "$schema": "https://schema.berlin.de/queuemanagement/config.json",
        "maintenance": {
            "nextStart": "{\"startDateTime\":\"2016-04-01T12:34:56+02:00\",\"isActive\":false,\"isRepetitive\":false,\"timeString\":\"2016-04-01T12:34:56+02:00\",\"duration\":120,\"leadTime\":90,\"area\":\"zms*\",\"id\":999999999}"
        }
    }
}